Data Visualization
…
path6 = "D://data_science/week 2_0715/data/GDP3.xlsx"
path7 = "D://data_science/week 2_0715/data/life3.xlsx"

library(dplyr)
library(readxl)
data11 = read_excel(path6)
data12 = read_excel(path7)

2642012-2016GDP

gdp_all<- select(data11,"Country Name", "GDP",  "year")
gdp_all

## # A tibble: 1,320 x 3
##    `Country Name`           GDP  year
##    <chr>                  <dbl> <dbl>
##  1 Aruba                2.53e 9  2012
##  2 Afghanistan          2.00e10  2012
##  3 Angola               1.28e11  2012
##  4 Albania              1.23e10  2012
##  5 Andorra              3.16e 9  2012
##  6 Arab World           2.79e12  2012
##  7 United Arab Emirates 3.75e11  2012
##  8 Argentina            5.46e11  2012
##  9 Armenia              1.06e10  2012
## 10 American Samoa       6.44e 8  2012
## # ... with 1,310 more rows
…
2642012-2016life expeatancy

life_all<- select(data12,"Country Name",    "LIFE", "year")
life_all

## # A tibble: 1,320 x 3
##    `Country Name`        LIFE year 
##    <chr>                <dbl> <chr>
##  1 Aruba                 75.3 2012 
##  2 Afghanistan           62.1 2012 
##  3 Angola                59.8 2012 
##  4 Albania               77.4 2012 
##  5 Andorra               NA   2012 
##  6 Arab World            70.4 2012 
##  7 United Arab Emirates  76.6 2012 
##  8 Argentina             75.9 2012 
##  9 Armenia               73.8 2012 
## 10 American Samoa        NA   2012 
## # ... with 1,310 more rows
…
